{
  "passages": [
    {
      "name": "hello",
      "dialog": "Hello Stranger.",
      "link": "answer"
    },

    {
      "name": "answer",
      "choices": [
        {
          "dialog": "Hello, you.",
          "link": "nice"
        },

        {
          "dialog": "Fuck off!",
          "link": "naughty"
        }
      ]
    },

    {
      "name": "nice",
      "dialog": "You have a long dong.",
      "link": "hello"
    },

    {
      "name": "naughty",
      "dialog": "Well, fuck you too.",
       "link": "hello"
    }
  ]
}
